INDEX VERSION 1.130+E:\parvam\j2ee\.metadata\.plugins\org.eclipse.jdt.core
777769215.index
3952150973.index
2463068618.index
4273864480.index
2844566785.index
76089508.index
2043727593.index
4042632457.index
1807869663.index
2634576440.index
1826310000.index
942326089.index
2896800830.index
1017376303.index
380874552.index
969968605.index
2680410946.index
1282606048.index
633662882.index
1698047438.index
4097665906.index
1734703654.index
893638001.index
1511427382.index
2975922945.index
1954551462.index
1521036461.index
3367984778.index
134141129.index
3021850880.index
1474046489.index
389808689.index
3961727627.index
3017952843.index
1785859386.index
2307989726.index
3789739560.index
434919171.index
2750295955.index
1228098616.index
170522541.index
1779438886.index
444554518.index
3362186211.index
3753606449.index
2483197934.index
3163312474.index
1061093550.index
